                           todaytodaytodaytoday
                                   / \
                                  /   \
                                 /     \
                                /       \
                               /         \
                              /           \
                             /             \
                            /               \
                           /                 \
                          /                   \
                         /                     \
                        /                       \
                       /                         \
                      /                           \
                     /                             \
                    /                               \
                   /                                 \
                  /                                   \
                 /                                     \
                /                                       \
               /                                         \
          todaytoday                                 todaytoday      
             / \                                         / \
            /   \                                       /   \
           /     \                                     /     \
          /       \                                   /       \
         /         \                                 /         \
        /           \                               /           \
       /             \                             /             \
      /               \                           /               \
     /                 \                         /                 \
    /                   \                       /                   \
 today                 today                 today                 today        
